{
  "browse.comcol.by.advisor": "By Advisor",
  "browse.comcol.by.affiliation": "By Affiliation",
  "browse.comcol.by.department": "By Department",
  "browse.comcol.by.type": "By Type",
  "browse.metadata.advisor": "Advisor",
  "browse.metadata.affiliation": "Affiliation",
  "browse.metadata.department": "Department",
  "browse.metadata.type": "Type",
  "browse.metadata.advisor.breadcrumbs": "Browse by Advisor",
  "browse.metadata.affiliation.breadcrumbs": "Browse by Affiliation",
  "browse.metadata.department.breadcrumbs": "Browse by Department",
  "browse.metadata.type.breadcrumbs": "Browse by Type",
  "dso-selector.set-scope.community.button": "Search all of DukeSpace",
  "home.search-form.placeholder": "Search ...",
  "home.top-level-communities.head": "Communities in DukeSpace",
  "item.page.department": "Department",
  "item.page.provenance": "Provenance",
  "item.page.rights-uri": "Rights",
  "item.page.subject": "Subjects",
  "item.page.type": "Type",
  "item.page.uri": "Permalink",
  "login.form.header": "Please log in to DukeSpace",
  "login.form.oidc": "Log in with Duke NetID",
  "login.form.shibboleth": "Log in with Duke NetID",
  "logout.form.header": "Log out from DukeSpace",
  "menu.section.browse_global": "Browse",
  "menu.section.browse_global_by_advisor": "By Advisor",
  "menu.section.browse_global_by_affiliation": "By Affiliation",
  "menu.section.browse_global_by_department": "By Department",
  "menu.section.browse_global_by_type": "By Type",
  "nav.browse.header": "Browse",
  "relationships.isAdvisorOf": "Advisors",
  "relationships.isCreatorOf": "Creators",
  "relationships.isEditorOf": "Editors",
  "register-page.registration.info": "Register an account to subscribe to collections for email updates, and submit new items to DukeSpace.",
  "repository.title": "DukeSpace",
  "repository.title.prefix": "DukeSpace :: ",
  "search.filters.applied.f.advisor": "Advisor",
  "search.filters.applied.f.affiliation": "Affiliation",
  "search.filters.applied.f.department": "Department",
  "search.filters.filter.advisor.head": "Advisor",
  "search.filters.filter.advisor.label": "Search advisor",
  "search.filters.filter.advisor.placeholder": "Advisor",
  "search.filters.filter.affiliation.head": "Affiliation",
  "search.filters.filter.affiliation.label": "Search affiliation",
  "search.filters.filter.affiliation.placeholder": "Affiliation",
  "search.filters.filter.department.head": "Department",
  "search.filters.filter.department.label": "Search department",
  "search.filters.filter.department.placeholder": "Department",
  "search.form.scope.all": "All of DukeSpace",
  "search.search-form.placeholder": "Search ...",
  "submission.sections.ccLicense.link": "The following license will be applied to this item:",
  "submission.sections.submit.progressbar.describe.stepone": "Describe (Step 1)",
  "submission.sections.submit.progressbar.describe.steptwo": "Describe (Step 2)",
  "submission.sections.submit.progressbar.describe.embargo": "Set an Embargo to Restrict Access (Optional)",
  "submission.sections.submit.progressbar.CClicense": "Creative Commons license",
  "title": "DukeSpace",
  "401.link.home-page": "Go to DukeSpace home",
  "401.unauthorized": "Unauthorized",
  "403.link.home-page": "Go to DukeSpace home",
  "403.forbidden": "Forbidden",
  "500.link.home-page": "Go to DukeSpace home",
  "404.help": "We can't find the page you asked for. You can use the button below to get back to the home page. ",
  "404.link.home-page": "Go to DukeSpace home",
  "404.page-not-found": "Page not found",
  "error-page.description.401": "Unauthorized",
  "error-page.description.403": "Forbidden",
  "error-page.description.404": "Page not found",
  "forgot-email.form.info": "Enter the email address you provided when you registered with DukeSpace. An email will be sent to that address with further instructions..",
  "info.feedback.info": "Thanks for sharing your feedback about the DukeSpace system. Your comments are appreciated!",
  "nav.mydspace": "MyDukeSpace",
  "mydspace.breadcrumbs": "MyDukeSpace",
  "mydspace.title": "MyDukeSpace",
  "submission.import-external.back-to-my-dspace": "Back to MyDukeSpace",
  "submission.sections.upload.after-upload-message": "Scroll to the bottom to edit title or description, or to delete files.",
}
